<?xml version="1.0" encoding="UTF-8" standalone="no"?>
<!-- Created with Inkscape (http://www.inkscape.org/) -->

<svg
   xmlns:dc="http://purl.org/dc/elements/1.1/"
   xmlns:cc="http://creativecommons.org/ns#"
   xmlns:rdf="http://www.w3.org/1999/02/22-rdf-syntax-ns#"
   xmlns:svg="http://www.w3.org/2000/svg"
   xmlns="http://www.w3.org/2000/svg"
   xmlns:sodipodi="http://sodipodi.sourceforge.net/DTD/sodipodi-0.dtd"
   xmlns:inkscape="http://www.inkscape.org/namespaces/inkscape"
   width="536.25159"
   height="2242.9189"
   viewBox="0 0 536.25158 2242.9187"
   id="svg2"
   version="1.1"
   inkscape:version="0.91 r13725"
   sodipodi:docname="move-2r.svg">
  <defs
     id="defs4" />
  <sodipodi:namedview
     id="base"
     pagecolor="#000000"
     bordercolor="#666666"
     borderopacity="1.0"
     inkscape:pageopacity="0.95686275"
     inkscape:pageshadow="2"
     inkscape:zoom="0.70710676"
     inkscape:cx="-146.70925"
     inkscape:cy="1983.3859"
     inkscape:document-units="px"
     inkscape:current-layer="layer2"
     showgrid="true"
     units="px"
     showguides="true"
     inkscape:guide-bbox="true"
     inkscape:window-width="1280"
     inkscape:window-height="776"
     inkscape:window-x="0"
     inkscape:window-y="0"
     inkscape:window-maximized="1"
     fit-margin-top="0"
     fit-margin-left="0"
     fit-margin-right="0"
     fit-margin-bottom="0">
    <inkscape:grid
       type="xygrid"
       id="grid3687"
       originx="0.18376751"
       originy="2252.9203" />
    <sodipodi:guide
       position="1248.1838,2242.9188"
       orientation="0,1"
       id="guide3690" />
    <sodipodi:guide
       position="440.18376,-147.07944"
       orientation="1,0"
       id="guide3692" />
  </sodipodi:namedview>
  <metadata
     id="metadata7">
    <rdf:RDF>
      <cc:Work
         rdf:about="">
        <dc:format>image/svg+xml</dc:format>
        <dc:type
           rdf:resource="http://purl.org/dc/dcmitype/StillImage" />
        <dc:title></dc:title>
      </cc:Work>
    </rdf:RDF>
  </metadata>
  <g
     inkscape:groupmode="layer"
     id="layer18"
     inkscape:label="move-1"
     style="display:none"
     transform="translate(86.893268,-914.36402)"
     sodipodi:insensitive="true">
    <rect
       style="fill:none"
       id="rect3672"
       width="557.79401"
       height="1055.6102"
       x="597.03802"
       y="920.77374" />
    <rect
       style="fill:none"
       id="rect3674"
       width="7.9970469"
       height="31.988188"
       x="587.04175"
       y="1974.3846" />
    <rect
       style="fill:none"
       id="rect3676"
       width="625.76892"
       height="1117.5873"
       x="537.06018"
       y="912.77667"
       ry="0" />
    <rect
       style="fill:none"
       id="rect3683"
       width="563.79181"
       height="1111.5895"
       x="593.03949"
       y="918.77448" />
    <path
       style="opacity:0.6;fill:#ff0000"
       d="m 620.80699,915.44233 538.48491,-5.05514 -0.017,1121.99591 -372.30696,-2.0193 C 753.2905,1886.3655 567.16298,1834.1936 636.88729,1688.5107 c 78.75405,-164.5498 11.6449,-246.4451 -84.39281,-405.5326 -40.33163,-66.8098 16.79011,-282.6104 68.31251,-367.53577 z"
       id="rect3685"
       inkscape:connector-curvature="0"
       sodipodi:nodetypes="ccccssc" />
    <path
       style="opacity:0.6;fill:#ff6600"
       d="m -86.709503,914.36395 580.000003,0 c 0,0 -52.58049,85.15399 -57.52016,210.28215 -4.15673,105.2952 39.42702,238.8969 37.32321,373.8833 -1.11588,71.5978 -89.55369,127.5911 -88.9999,195.9507 0.67294,83.0678 90.82557,176.7728 95.20202,241.9186 2.1226,31.596 13.99483,93.9653 13.99483,93.9653 l -580.000003,0 z"
       id="rect3705"
       inkscape:connector-curvature="0"
       sodipodi:nodetypes="ccssssccc" />
  </g>
  <g
     inkscape:groupmode="layer"
     id="layer2"
     inkscape:label="move-2"
     style="display:inline"
     transform="translate(0.18376751,0.41193896)">
    <path
       style="opacity:0.6;fill:#d35f5f"
       d="m 536.06781,-2.412 -439.999996,0 c 0,0 -43.06605,135.88247 -48.04135,216.333 -4.05068,65.49953 15.76288,98.49371 0,167.93798 -15.76287,69.44427 201.708916,77.28823 201.925426,197.9269 C 250.16841,700.42456 136.06781,875.58801 66.019824,959.6456 -4.0281662,1043.7032 0.04418379,1113.588 0.04418379,1113.588 l 536.02362621,0 z"
       id="rect3809"
       inkscape:connector-curvature="0"
       sodipodi:nodetypes="ccszzzccc" />
    <path
       style="display:inline;opacity:0.6;fill:#d35f5f"
       d="m 535.88405,2245.3353 -438.436504,1.1716 c 0,0 -44.62955,-151.054 -49.60485,-231.5046 -4.05068,-65.4995 15.76288,-98.4937 0,-167.938 C 32.079826,1777.6201 249.55162,1769.7761 249.76813,1649.1374 249.98465,1528.4988 135.88405,1353.3353 65.836056,1269.2777 -4.2119337,1185.2201 -0.13958372,1113.3353 -0.13958372,1113.3353 l 536.02363372,0 z"
       id="rect3809-7"
       inkscape:connector-curvature="0"
       sodipodi:nodetypes="ccszzzccc" />
  </g>
  <g
     inkscape:groupmode="layer"
     id="layer15"
     inkscape:label="Layer 15"
     style="display:none"
     transform="translate(86.893268,-914.36402)">
    <g
       id="g3605">
      <path
         inkscape:connector-curvature="0"
         id="path4607-2"
         d="m -43.9433,916.06644 c -34.852,3.4 -34.6287,3.1649 -37.4873,39.4866 -2.7539,34.99136 -2.3687,1035.70866 0.4059,1054.33416 l 1.8088,12.1429 279.8249,0 c 164.151,0 279.825,-1.0642 279.825,-2.5744 0,-6.4189 -23.4869,-118.068 -30.0288,-142.7469 -4.8882,-18.4407 -16.2845,-46.0823 -34.5025,-83.6855 -32.357,-66.7873 -38.7628,-89.9669 -33.4439,-121.0181 4.2415,-24.762 14.4165,-41.1116 49.2453,-79.1296 32.1395,-35.0825 43.28,-50.8467 51.8728,-73.4019 13.5297,-35.5142 10.3302,-73.1194 -13.1521,-154.5865 -30.9476,-107.366 -35.1697,-132.7817 -29.9721,-180.4224 6.9534,-63.7343 12.777,-84.7912 47.0495,-170.1227 l 32.3502,-80.54506 -14.7092,-1.5978 c -14.5222,-1.5775 -126.692,-7.4534 -248.9949,-13.0435 -85.7014,-3.9171 -271.9519,-5.8344 -300.0916,-3.0893 z"
         style="display:inline;fill:#ff3d16;fill-opacity:0.21276598" />
      <path
         inkscape:connector-curvature="0"
         id="path4649-9"
         d="m -78.898,1466.594 c 1.1301,298.4184 2.9207,543.4422 3.9791,544.4974 2.7211,2.713 511.9246,4.2761 511.9245,1.5715 -1e-4,-1.2234 -3.6947,-9.5806 -8.2103,-18.5715 -4.5156,-8.9909 -13.1071,-27.9185 -19.0923,-42.0614 -22.6226,-53.4568 -37.3198,-77.2923 -94.5871,-153.399 -39.8022,-52.896 -52.124,-72.5026 -74.9928,-119.3297 -35.8764,-73.4618 -50.0918,-130.7161 -43.309,-174.4323 10.1802,-65.6129 58.7495,-126.6343 127.9819,-160.7938 34.3456,-16.9462 59.9105,-37.3603 70.544,-56.3309 9.7211,-17.3429 9.9264,-20.2981 7.2442,-104.2857 -1.4984,-46.9213 -1.9145,-45.7167 55.6807,-161.181 l 44.0533,-88.31586 -26.2278,-1.6065 c -14.4253,-0.8836 -91.1564,-2.2896 -170.5136,-3.1243 -79.3571,-0.8348 -198.7905,-2.3498 -265.4076,-3.3668 l -121.1219,-1.849 2.0547,542.57886 z"
         style="display:inline;fill:#ff3500;fill-opacity:0.21276598" />
      <path
         inkscape:connector-curvature="0"
         id="path4625-1"
         d="m -81.0834,1459.6688 c -1.0405,289.6558 -2.7321,535.4013 -3.759,546.1011 l -1.8671,19.4542 66.8575,-1.8054 c 36.7716,-0.993 143.0304,-2.7775 236.1308,-3.9656 93.1003,-1.1882 169.9657,-2.8526 170.8119,-3.6988 0.8463,-0.8463 -16.6193,-27.7447 -38.8124,-59.7743 -45.8885,-66.2275 -61.7527,-92.1278 -85.3116,-139.2829 -35.9779,-72.0124 -51.9613,-123.8484 -50.3339,-163.2385 2.2312,-54.0055 42.1909,-146.2619 92.4767,-213.5044 15.5432,-20.7845 32.8799,-46.5808 38.5258,-57.325 15.3919,-29.2908 28.468,-70.424 28.8013,-90.5992 0.3397,-20.5679 -2.2297,-25.4182 -43.6943,-82.484 -44.395,-61.0987 -52.4935,-82.4152 -40.9556,-107.8017 3.1425,-6.9143 26.4783,-46 51.8575,-86.8572 l 46.1439,-74.28566 -17.9628,-1.7706 c -9.8795,-0.9738 -114.4999,-2.6792 -232.4898,-3.7898 l -214.527,-2.0192 -1.8919,526.64696 z"
         style="display:inline;fill:#ff0000;fill-opacity:0.21276598" />
      <path
         inkscape:connector-curvature="0"
         id="path4629-2"
         d="m -84.7451,959.69694 c 0.9254,16.2118 2.4987,261.75806 3.4963,545.65836 l 1.8137,516.1825 81.7917,-1.4652 c 44.9854,-0.8059 128.5098,-2.3022 185.6096,-3.3253 l 103.818,-1.8601 10.8122,-42.8571 c 5.9468,-23.5715 20.5456,-73.8246 32.4418,-111.6735 27.2563,-86.7181 35.8679,-120.6972 38.8901,-153.4497 5.9554,-64.5395 -15.8974,-127.4355 -65.7231,-189.1626 -35.3166,-43.7524 -63.6796,-96.3019 -82.1671,-152.2354 -18.0805,-54.7022 -18.1833,-86.3715 -0.4563,-140.6217 21.3382,-65.3018 56.4314,-130.2796 117.9672,-218.4258 l 47.9723,-68.71716 -70.8294,-1.7748 c -38.9561,-0.9762 -146.4946,-2.669 -238.9744,-3.7616 l -168.145,-1.9867 1.6824,29.4758 z"
         style="display:inline;fill:#f56900;fill-opacity:0.21276598" />
      <path
         inkscape:connector-curvature="0"
         id="path4639-7"
         d="m -72.2721,985.6014 c -0.5098,33.3928 -1.2095,278.3215 -1.5551,544.2858 l -0.6284,483.5714 126.7028,0 c 69.6865,0 148.3263,0.8528 174.755,1.8952 l 48.0524,1.8951 -1.659,-25.6067 c -3.0681,-47.3563 -21.0481,-87.8352 -60.9589,-137.2382 -51.7278,-64.0306 -58.2049,-75.0071 -60.4098,-102.374 -2.7523,-34.16 14.7627,-71.3076 66.0097,-140 15.2404,-20.4286 33.1334,-48.0714 39.7623,-61.4286 11.5993,-23.3729 12.0412,-25.2522 11.7554,-50 -0.3855,-33.3904 -8.9676,-60.0444 -36.1188,-112.1772 -37.9663,-72.8986 -42.1736,-82.0559 -48.2264,-104.9656 -4.742,-17.9482 -6.0563,-31.4478 -6.1197,-62.8572 -0.1262,-62.4659 8.1485,-91.1522 38.4237,-133.2041 38.9687,-54.1271 66.6367,-129.29176 56.9275,-154.65306 l -3.008,-7.8571 -171.389,0 -171.389,0 -0.9267,60.71426 z"
         style="display:inline;fill:#f5e916;fill-opacity:0.21276598" />
      <path
         inkscape:connector-curvature="0"
         id="path4635-0"
         d="m -83.9581,1306.0752 c -1.0415,207.2963 -1.8936,451.0565 -1.8936,541.6894 l 0,164.787 57.8571,1.8746 c 31.8214,1.031 83.6832,1.8779 115.2484,1.8821 l 57.3912,0.01 3.5219,-57.8572 c 5.0405,-82.8036 7.1984,-96.816 24.9698,-162.1429 20.7341,-76.2178 24.1867,-96.054 20.5975,-118.3408 -6.5796,-40.8555 -19.4662,-58.1577 -68.2303,-91.6089 -54.4435,-37.3471 -62.8857,-48.3534 -65.0481,-84.8047 -2.0897,-35.2251 6.2376,-58.5717 42.7364,-119.8182 25.2594,-42.3862 31.02,-57.8301 33.0063,-88.4877 1.5854,-24.4716 1.5047,-24.8582 -10.2258,-48.9826 -24.8761,-51.1593 -21.8201,-79.0157 13.3068,-121.2971 24.9006,-29.9722 24.9092,-29.9947 24.5265,-63.679 -0.3219,-28.3323 -6.5241,-82.26386 -12.8745,-111.95056 l -2.8354,-13.2553 -69.1168,-1.8057 c -38.0142,-0.9931 -89.8003,-2.0997 -115.0803,-2.459 l -45.9635,-0.6533 -1.8936,376.90236 z"
         style="display:inline;fill:#cde71d;fill-opacity:0.21276598" />
      <path
         inkscape:connector-curvature="0"
         id="path3741-9"
         d="m -80.6197,1162.7443 c -0.9604,127.6786 -2.203,371.125 -2.7613,540.992 l -1.0152,308.8492 78.4829,1.9878 c 43.1656,1.0933 78.9985,1.4722 79.6287,0.842 0.6301,-0.6301 8.0524,-27.3639 16.4938,-59.4084 8.4415,-32.0444 20.0774,-72.4055 25.8576,-89.6912 8.0246,-23.998 10.8787,-37.8463 12.0717,-58.5734 2.408,-41.8382 -6.3183,-68.4457 -39.3799,-120.075 -7.5743,-11.828 -17.215,-29.0271 -21.4237,-38.2201 -6.9318,-15.1412 -7.5195,-19.0336 -6.243,-41.3516 1.1301,-19.7579 3.1909,-28.4455 10.4058,-43.8682 12.4135,-26.5348 20.3207,-61.6174 20.3448,-90.265 0.023,-27.7154 -8.0631,-55.5428 -25.4696,-87.6467 -25.4145,-46.8735 -33.1304,-79.6982 -28.4881,-121.1919 4.6706,-41.7472 19.9163,-72.3336 58.6198,-117.6046 30.6653,-35.8688 31.213,-37.8283 21.1935,-75.8162 -7.6901,-29.1564 -29.1617,-99.80116 -38.1098,-125.38726 l -3.9969,-11.4286 -41.1501,-1.7838 c -22.6326,-0.9811 -57.3872,-1.9454 -77.2325,-2.1429 l -36.0824,-0.359 -1.7461,232.14286 z"
         style="display:inline;fill:#de8787;fill-opacity:0.21276598" />
    </g>
    <g
       id="g3621"
       transform="translate(0,-14)" />
  </g>
  <g
     inkscape:groupmode="layer"
     id="layer3"
     inkscape:label="move-3"
     style="display:none"
     sodipodi:insensitive="true"
     transform="translate(0.18376751,0.41193896)">
    <path
       style="opacity:0.6;fill:#ffff00"
       d="m 0,-0.412 520,0 c 0,0 -197.24374,162.01826 -223.91731,362.27836 -9.61214,72.16613 102.74975,190.19928 140.44718,311.67043 66.91245,215.60975 -82.46859,444.05051 -82.46859,444.05051 L 0,1115.588 Z"
       id="rect3835"
       inkscape:connector-curvature="0"
       sodipodi:nodetypes="ccssccc" />
    <path
       style="opacity:0.6;fill:#ffff00"
       d="M 641.99926,-2.405342 1244.0007,1.5931813 1246,1115.588 l -560.01698,5.9978 c 0.92643,-0.772 16.6547,-133.55506 90.58942,-279.69173 C 808.71555,750.75448 723.59221,696.3134 683.29015,630.31568 662.75016,594.38915 676.7443,545.17703 679.51771,513.78982 689.90143,396.2756 740.27197,297.41499 725.53492,245.91241 677.95649,79.636729 641.99926,-2.405342 641.99926,-2.405342 Z"
       id="rect3838"
       inkscape:connector-curvature="0"
       sodipodi:nodetypes="ccccccssc" />
  </g>
  <g
     inkscape:groupmode="layer"
     id="layer4"
     inkscape:label="move-4"
     style="display:none"
     sodipodi:insensitive="true"
     transform="translate(0.18376751,0.41193896)">
    <path
       style="opacity:0.5;fill:#ffff00"
       d="m 760,-4.4119873 486,0 0,1119.9999873 -539.98007,0 c 0,0 284.41285,-355.92346 257.90476,-489.8191 C 937.4166,491.87327 780.74385,477.5546 767.99705,389.85603 755.25024,302.15746 876.08349,288.80011 875.95718,207.92321 875.83086,127.04632 760,-4.4119873 760,-4.4119873 Z"
       id="rect3992"
       inkscape:connector-curvature="0"
       sodipodi:nodetypes="cccczzzc" />
    <path
       style="opacity:0.54060005;fill:#ffff00"
       d="m 0,-0.412 494.01698,1.9992617 c 0,0 -128.37124,117.1695183 -117.95644,202.3374283 C 386.47534,289.0926 420,275.58801 460.02953,357.86784 500.05907,440.14767 243.6723,616.23949 260.10337,765.71722 276.53443,915.19495 474.02436,1115.588 474.02436,1115.588 L 0,1115.588 Z"
       id="rect3995"
       inkscape:connector-curvature="0"
       sodipodi:nodetypes="cczzzccc" />
  </g>
  <g
     inkscape:groupmode="layer"
     id="layer5"
     inkscape:label="move-5"
     style="display:none"
     sodipodi:insensitive="true"
     transform="translate(0.18376751,0.41193896)">
    <path
       style="opacity:0.5;fill:#ff0000"
       d="m 0,-0.412 380,0 c 0,0 -30.06096,49.722574 -33.98745,100.375084 -3.92649,50.652506 -80.75886,109.399946 -81.96973,199.926166 -1.21086,90.52622 79.11609,211.91122 95.96456,303.88777 16.84847,91.97656 -125.56571,130.55383 -121.95496,215.92027 2.07591,49.0792 66.67719,125.53294 105.92593,193.55991 C 372.99732,1063.5536 380,1115.588 380,1115.588 l -380,0 z"
       id="rect4020"
       inkscape:connector-curvature="0"
       sodipodi:nodetypes="cczzzssccc" />
    <path
       style="opacity:0.5;fill:#ff0000"
       d="m 760,-4.4119873 486,0 0,1119.9999873 -390,4 c 0,0 -108,-300.00002 -82,-402 C 800,615.58801 950.43396,511.9439 948.00001,391.58799 945.56606,271.23208 760,-4.4119873 760,-4.4119873 Z"
       id="rect4029"
       inkscape:connector-curvature="0"
       sodipodi:nodetypes="cccczzc" />
  </g>
  <g
     inkscape:groupmode="layer"
     id="layer6"
     inkscape:label="move-6"
     style="display:none"
     sodipodi:insensitive="true"
     transform="translate(0.18376751,0.41193896)">
    <path
       style="opacity:0.5;fill:#ff6600"
       d="m 990,5.5880131 270,-10.0000004 0,1119.9999873 -260,2 c 0,0 -46.09672,-114.3238 -24,-159.99999 22.09672,-45.67618 53.7631,-64.2035 60,-100.00001 6.2369,-35.79651 -73.03963,-78.33385 -50,-134 23.0396,-55.66616 97.8284,-126.26186 96,-204.00001 -1.8284,-77.73815 -162.60732,-120.36024 -142,-176 C 980,235.58801 990,5.5880131 990,5.5880131 Z"
       id="rect4052"
       inkscape:connector-curvature="0"
       sodipodi:nodetypes="cccczzzzsc" />
    <path
       style="opacity:0.5;fill:#ffff00"
       d="m 0,-0.412 230,4.0000002 c 0,0 30,112.0000098 10.92275,152.0065998 -19.07725,40.00659 -44.299,43.6358 -44.7897,111.96561 -0.4907,68.32982 32.51579,26.67755 31.84551,120.01326 -0.28669,39.92072 -97.76744,124.51216 -87.97448,188.0139 13.10323,84.967 132.21874,107.9735 136.10733,163.98707 C 280,795.58801 200,835.58801 257.50861,889.62586 315.01722,943.66371 226,1103.588 226,1103.588 l -226,12 z"
       id="rect4055"
       inkscape:connector-curvature="0"
       sodipodi:nodetypes="cczzsszzccc" />
  </g>
  <g
     inkscape:groupmode="layer"
     id="layer7"
     inkscape:label="move-7"
     sodipodi:insensitive="true"
     style="display:none"
     transform="translate(0.18376751,0.41193896)">
    <path
       style="opacity:0.44480046;fill:#ff6600"
       d="m 0,-0.412 152,6.0000002 c 0,0 58,96.6666498 58,159.9999798 0,63.33333 -82,143.33334 -82,210.00001 0,66.66667 58,135.66667 58,192 0,56.33334 -30,94.00001 -30,148.00001 0,54 64,99.66667 64,166 0,66.33334 -60,238 -60,238 l -160,-4 z"
       id="rect4087"
       inkscape:connector-curvature="0"
       sodipodi:nodetypes="cczzzzzccc" />
    <path
       style="opacity:0.44480046;fill:#ff6600"
       d="m 1082,-4.4119873 164,0 8,1127.9999873 -186,-4 c 0,0 -48,-114.8266 -48,-228 0,-63.82578 58,-158.03684 58,-184 0,-76.86389 -26,-121.40949 -26,-146.00001 0,-86.56225 58,-157.40477 58,-194 0,-98.70033 -90,-160.15217 -90,-184.00001 0,-92.000034 62,-187.9999673 62,-187.9999673 z"
       id="rect4090"
       inkscape:connector-curvature="0"
       sodipodi:nodetypes="ccccsssssc" />
  </g>
  <g
     inkscape:groupmode="layer"
     id="layer13"
     inkscape:label="Layer 13"
     style="display:none"
     transform="translate(86.893268,-914.36402)">
    <g
       id="g3837">
      <path
         inkscape:connector-curvature="0"
         id="path4611"
         d="m 596.03824,2025.1335 c 0,-8.7326 19.47936,-102.3482 28.3737,-136.3608 6.18646,-23.6575 14.32343,-43.8538 31.442,-78.0406 30.09507,-60.1017 37.32716,-81.7102 37.32716,-111.5283 0,-35.8675 -8.9859,-53.6824 -48.18244,-95.5241 -30.31874,-32.3647 -39.02931,-44.0612 -49.60526,-66.6095 -7.89682,-16.8363 -9.33326,-23.4211 -10.30481,-47.2385 -1.45342,-35.6304 1.51725,-51.7411 24.03303,-130.3374 23.79354,-83.0566 27.96158,-106.8317 26.14426,-149.1303 -2.77322,-64.5472 -10.43372,-94.7813 -46.94478,-185.2794 -17.97209,-44.54647 -32.24526,-81.42487 -31.71815,-81.95198 0.5271,-0.5271 36.29425,-2.97689 79.48255,-5.44398 277.53637,-15.85397 504.1145,-18.40089 516.7072,-5.8082 4.7011,4.7011 6.1246,109.20556 6.2454,458.48356 0.074,214.5 -0.7607,446.25 -1.8552,515 l -1.9898,125 -279.57743,0 c -269.05358,0 -279.57743,-0.1969 -279.57743,-5.2305 z"
         style="display:inline;fill:#ee26a0;fill-opacity:0.21276598" />
      <path
         inkscape:connector-curvature="0"
         id="path4627"
         d="m 853.50907,2021.4187 c -98.0339,-1.2669 -178.80108,-2.8612 -179.48262,-3.5427 -0.68154,-0.6815 18.89939,-29.972 43.51318,-65.0899 52.0416,-74.2507 60.75777,-88.6342 88.81565,-146.5641 23.75668,-49.0494 39.4711,-93.6653 43.52995,-123.5888 5.65322,-41.678 -6.40609,-89.6887 -39.60075,-157.6593 -20.341,-41.651 -29.40752,-55.8655 -63.07935,-98.8956 -33.41693,-42.7044 -56.88117,-99.2409 -56.88117,-137.0537 0,-17.7323 8.56421,-33.215 42.01566,-75.9573 41.19801,-52.6405 52.99348,-78.7955 46.4667,-103.0341 -1.65566,-6.1486 -25.89883,-47.4824 -53.87371,-91.8528 l -50.86343,-80.67355 233.12739,-1.71278 c 128.22003,-0.94204 233.65563,-1.2709 234.30133,-0.73082 1.3224,1.10615 5.5004,667.94065 5.784,923.15785 l 0.1849,166.4286 -57.8571,-0.4637 c -31.8215,-0.2552 -138.06673,-1.5003 -236.10063,-2.7673 z"
         style="display:inline;fill:#a1b300;fill-opacity:0.21276598" />
      <path
         inkscape:connector-curvature="0"
         id="path4633"
         d="m 940.32396,2018.7876 c -59.71429,-1.0469 -122.71429,-2.1089 -140,-2.3601 l -31.42857,-0.4565 -10.70011,-43.5178 c -5.88505,-23.9348 -19.75974,-71.8035 -30.83264,-106.3749 -45.37317,-141.6626 -50.91996,-186.0742 -30.95714,-247.8649 12.58165,-38.9439 24.76207,-59.1013 73.80226,-122.1351 18.31519,-23.5415 51.25676,-89.534 64.17916,-128.5714 20.99384,-63.4206 18.45034,-101.8359 -11.63413,-175.7143 -27.08422,-66.5107 -50.8949,-107.3072 -120.39465,-206.28045 l -34.23448,-48.75267 196.10015,-1.75549 c 107.85509,-0.96552 215.22389,-2.47646 238.59749,-3.35764 l 42.4974,-1.60216 -1.7991,452.30271 c -0.9895,248.7666 -2.5884,494.41 -3.553,545.8742 l -1.754,93.5715 -44.6586,-0.5507 c -24.5623,-0.3029 -93.5158,-1.4073 -153.23004,-2.4543 z"
         style="display:inline;fill:#f54ac4;fill-opacity:0.21276598" />
      <path
         inkscape:connector-curvature="0"
         id="path4641"
         d="m 634.03209,2002.8963 c 5.43758,-10.8213 15.34111,-32.5323 22.00783,-48.2466 21.9292,-51.6898 33.21349,-70.8606 70.63459,-120 68.24204,-89.6119 93.8944,-132.2285 119.49682,-198.5216 38.65891,-100.1007 26.10323,-173.6255 -40.8124,-238.9931 -24.16721,-23.6081 -34.05022,-30.3558 -75.03497,-51.2308 -48.19094,-24.5454 -67.8952,-46.5507 -72.75786,-81.2545 -0.99084,-7.0714 0.12467,-29.0168 2.47891,-48.7676 4.50148,-37.7649 3.11467,-61.3018 -4.95812,-84.1487 -2.20951,-6.2532 -24.18776,-51.6881 -48.84055,-100.9666 -24.6528,-49.27843 -44.23687,-90.18356 -43.52017,-90.90026 0.7167,-0.7167 98.18369,-2.45172 216.5933,-3.8556 118.4096,-1.40389 248.99783,-3.11985 290.19623,-3.81325 l 74.9061,-1.26073 -1.7289,543.28494 c -0.9508,298.8067 -1.8729,543.4764 -2.0489,543.7103 -0.176,0.234 -116.4603,1.3735 -258.40924,2.5324 l -258.08919,2.1069 9.88652,-19.6752 z"
         style="display:inline;fill:#f5e916;fill-opacity:0.21276598" />
      <path
         inkscape:connector-curvature="0"
         id="path4609"
         d="m 790.99591,2016.2661 c -12.98114,-24.2555 15.6347,-101.715 60.33954,-163.3317 7.52521,-10.372 16.15655,-24.6306 19.18077,-31.6858 16.75526,-39.0885 20.30703,-115.8301 7.50461,-162.149 -2.41382,-8.7331 -19.83363,-46.7356 -38.7107,-84.4499 -62.80667,-125.4807 -61.86235,-145.6666 11.49478,-245.7143 35.42915,-48.3198 51.66033,-77.1539 58.70417,-104.2857 9.58761,-36.9301 0.18091,-62.3571 -41.75135,-112.8571 -32.77608,-39.473 -46.51966,-59.5938 -58.30963,-85.3661 -12.011,-26.2554 -18.55271,-53.15783 -18.55271,-76.29701 l 0,-18.44085 173.57143,1.06941 c 95.46418,0.58818 174.01788,1.48665 174.56358,1.9966 0.5458,0.50995 0.039,245.30215 -1.1266,543.98255 l -2.1189,543.0554 -170.91562,0 c -166.05518,0 -170.99981,-0.1572 -173.87337,-5.5265 z"
         style="display:inline;fill:#ff3d16;fill-opacity:0.21276598" />
      <path
         inkscape:connector-curvature="0"
         id="path4637"
         d="m 1017.7851,2018.5606 c -61.11076,-1.2771 -111.78402,-2.9957 -112.6073,-3.8189 -6.10989,-6.1099 -19.32695,-120.6027 -16.43716,-142.3869 2.36108,-17.7987 3.9874,-20.8589 24.4691,-46.0421 19.20743,-23.6165 24.99339,-34.1765 28.2362,-51.5344 3.43829,-18.4043 -0.70151,-38.4474 -13.82581,-66.9386 -9.53006,-20.6886 -11.58189,-28.235 -11.58189,-42.5972 0,-35.4066 7.25629,-55.0434 39.96074,-108.1404 41.3993,-67.2134 48.30842,-121.5394 19.84835,-156.0664 -4.79461,-5.8167 -26.77456,-22.9766 -48.84434,-38.1331 -43.00196,-29.5318 -50.7028,-38.0619 -62.78163,-69.5419 -11.0158,-28.7097 -9.08098,-48.6012 12.65845,-130.1396 11.40893,-42.7916 20.19111,-82.3106 21.90523,-98.5714 2.79162,-26.4826 8.68178,-111.57093 8.68178,-125.4157 l 0,-6.9418 114.73798,1.86912 c 63.1058,1.02802 115.2468,2.37797 115.8687,2.99988 0.6219,0.6219 0.2122,244.9184 -0.9104,542.8811 -1.4626,388.1956 -2.9236,541.6213 -5.1544,541.2953 -1.7124,-0.2503 -53.113,-1.4998 -114.2236,-2.777 z"
         style="display:inline;fill:#cd8e6d;fill-opacity:0.21276598;stroke:#ffaaaa" />
      <path
         inkscape:connector-curvature="0"
         id="path4574"
         d="m 981.05973,2018.5478 c -0.73457,-2.1439 -6.6748,-25.1124 -13.20053,-51.0409 -6.52573,-25.9286 -17.65972,-65.1429 -24.7422,-87.1429 -10.04528,-31.2032 -13.20083,-45.7336 -14.34863,-66.0715 -2.37854,-42.1453 4.69173,-63.5386 40.35664,-122.1114 11.61218,-19.0708 22.71594,-39.7064 24.67502,-45.8569 5.83886,-18.3309 2.13325,-51.4623 -8.45372,-75.5838 -13.39368,-30.5163 -20.16521,-60.3645 -20.16521,-88.8863 0,-30.4328 4.55756,-46.439 24.6045,-86.4115 23.3712,-46.6007 29.941,-68.6921 29.941,-100.6783 0,-52.3779 -14.9473,-88.9006 -56.16003,-137.2238 -36.10954,-42.3396 -35.34335,-39.157 -21.53561,-89.4546 6.34259,-23.1042 17.72268,-61.2933 25.28908,-84.86476 l 13.7571,-42.85715 77.05196,-1.8155 c 42.3785,-0.99853 77.4212,-1.48645 77.8724,-1.08427 1.3426,1.19654 5.6395,1079.91988 4.3076,1081.42348 -0.6727,0.7594 -36.4785,1.8707 -79.5685,2.4695 -64.3431,0.8941 -78.584,0.392 -79.68087,-2.8094 z"
         style="fill:#de8787;fill-opacity:0.21276598" />
    </g>
  </g>
</svg>
