<?xml version="1.0" encoding="UTF-8" standalone="no"?>
<!-- Created with Inkscape (http://www.inkscape.org/) -->

<svg
   xmlns:osb="http://www.openswatchbook.org/uri/2009/osb"
   xmlns:dc="http://purl.org/dc/elements/1.1/"
   xmlns:cc="http://creativecommons.org/ns#"
   xmlns:rdf="http://www.w3.org/1999/02/22-rdf-syntax-ns#"
   xmlns:svg="http://www.w3.org/2000/svg"
   xmlns="http://www.w3.org/2000/svg"
   xmlns:sodipodi="http://sodipodi.sourceforge.net/DTD/sodipodi-0.dtd"
   xmlns:inkscape="http://www.inkscape.org/namespaces/inkscape"
   width="1024"
   height="768"
   viewBox="0 0 1024 768.00001"
   id="svg2"
   version="1.1"
   inkscape:version="0.91 r13725"
   sodipodi:docname="move-b.svg">
  <defs
     id="defs4">
    <linearGradient
       id="linearGradient4848"
       osb:paint="solid">
      <stop
         style="stop-color:#000000;stop-opacity:1;"
         offset="0"
         id="stop4850" />
    </linearGradient>
  </defs>
  <sodipodi:namedview
     id="base"
     pagecolor="#ffffff"
     bordercolor="#666666"
     borderopacity="1.0"
     inkscape:pageopacity="0.0"
     inkscape:pageshadow="2"
     inkscape:zoom="0.35"
     inkscape:cx="660.60967"
     inkscape:cy="8.4442069"
     inkscape:document-units="px"
     inkscape:current-layer="layer13"
     showgrid="false"
     units="px"
     showguides="true"
     inkscape:guide-bbox="true"
     inkscape:window-width="1680"
     inkscape:window-height="1028"
     inkscape:window-x="0"
     inkscape:window-y="0"
     inkscape:window-maximized="1"
     inkscape:snap-to-guides="true" />
  <metadata
     id="metadata7">
    <rdf:RDF>
      <cc:Work
         rdf:about="">
        <dc:format>image/svg+xml</dc:format>
        <dc:type
           rdf:resource="http://purl.org/dc/dcmitype/StillImage" />
        <dc:title></dc:title>
      </cc:Work>
    </rdf:RDF>
  </metadata>
  <g
     inkscape:label="Layer 1"
     inkscape:groupmode="layer"
     id="layer1"
     transform="translate(0,-284.36207)"
     style="display:none" />
  <g
     inkscape:groupmode="layer"
     id="layer18"
     inkscape:label="Layer 17"
     style="display:none">
    <path
       style="display:inline;fill:none;fill-rule:evenodd;stroke:#000000;stroke-width:1px;stroke-linecap:butt;stroke-linejoin:miter;stroke-opacity:1"
       d="m 530.89424,43.797508 c -10.28964,52.44759 3.88082,132.560662 25.71428,200.000012 21.83346,67.43936 102.20703,123.0018 102.85714,194.28572 0.65011,71.28391 -62.43544,174.58761 -48.57142,220 13.86401,45.41238 20.1046,79.33918 54.28571,114.28571 34.18111,34.94653 108.57143,157.14282 108.57143,157.14282 l 362.85712,2.8572 -2.8571,-1105.71431 -520.00002,14.28572 C 586.1689,-59.139674 541.18388,-8.6500723 530.89424,43.797508 Z"
       id="path3685"
       inkscape:connector-curvature="0"
       sodipodi:nodetypes="zzzzzccccz" />
    <path
       style="fill:#ff6600;fill-opacity:0.21276598"
       d="m 854.84585,928.22359 -80.33524,-0.80446 -10.90303,-17.81328 c -34.3961,-56.19614 -75.74187,-114.75446 -101.98736,-144.44546 -7.88817,-8.92374 -18.64862,-25.22497 -23.91211,-36.22497 -12.20784,-25.51274 -26.7379,-73.68754 -26.78014,-88.7902 -0.0346,-12.36983 12.92599,-61.8112 22.7104,-86.63446 10.38218,-26.3398 22.57012,-70.77783 25.71824,-93.77043 5.76559,-42.10951 -6.2108,-73.17054 -52.43165,-135.98257 C 572.20168,276.57039 561.66122,256.08513 549.75848,212.65553 530.67015,143.00773 524.8,74.534609 534.68039,36.774995 c 2.57245,-9.831089 17.56695,-44.7614145 33.3211,-77.622943 15.75414,-32.861531 32.81443,-72.671762 37.91176,-88.467172 l 9.26785,-28.71893 31.42857,-0.27913 c 17.28572,-0.15352 133,-3.18271 257.14286,-6.73153 124.14287,-3.54882 226.35717,-5.92652 227.14287,-5.28378 0.7857,0.64275 1.8907,248.561499 2.4556,550.93057 l 1.0271,549.76191 -99.5985,-0.66797 c -54.77918,-0.36737 -135.74935,-1.02997 -179.93375,-1.47243 z"
       id="path4601"
       inkscape:connector-curvature="0" />
    <path
       style="fill:#ff1200;fill-opacity:0.81868131"
       d="m 883.13885,928.22225 -109.18512,-0.78312 -7.77174,-13.53757 c -20.65967,-35.98703 -69.19262,-105.90843 -99.98705,-144.05128 -21.62613,-26.78672 -31.67651,-45.93475 -43.2203,-82.34343 -13.4506,-42.42269 -13.62696,-46.2804 -3.87179,-84.69017 4.73278,-18.63469 10.66487,-38.79763 13.18243,-44.80652 8.27078,-19.74063 24.57449,-80.10197 27.19381,-100.6798 3.10858,-24.42154 -1.50841,-50.25717 -13.05541,-73.05514 -4.27323,-8.43689 -21.73733,-35.42563 -38.80911,-59.975 C 572.79081,274.22339 560.46279,249.90193 549.86282,210.36399 536.09585,159.01316 532.64054,134.31082 532.47801,86.078278 l -0.15405,-45.714286 10.42755,-24.285714 c 5.73516,-13.3571432 19.76845,-44.214286 31.1851,-68.571429 11.41665,-24.357143 25.45882,-57.785719 31.20483,-74.285719 l 10.44729,-30 256.27766,-6.85186 c 140.95271,-3.76852 256.91031,-6.21921 257.68351,-5.44598 0.7733,0.77323 2.2481,248.463708 3.2776,550.42327 l 1.8717,549.01743 -71.1876,-0.67931 c -39.1532,-0.37363 -120.32095,-1.03172 -180.37275,-1.46243 z"
       id="path4603"
       inkscape:connector-curvature="0" />
  </g>
  <g
     inkscape:groupmode="layer"
     id="layer14"
     inkscape:label="Layer 14"
     style="display:none">
    <path
       style="fill:none;fill-rule:evenodd;stroke:#000000;stroke-width:1px;stroke-linecap:butt;stroke-linejoin:miter;stroke-opacity:1"
       d="m 512.57251,729.42363 c 10.2897,-52.4476 -3.8808,-132.56067 -25.7142,-200.00002 -21.8335,-67.43936 -102.2071,-123.0018 -102.8572,-194.28572 -0.6501,-71.28391 62.4355,-174.58761 48.5714,-220 C 418.70851,69.725509 412.46791,35.798713 378.28681,0.85218257 344.10571,-34.094347 269.71541,-156.29064 269.71541,-156.29064 l -362.857096,-2.8572 2.8571,1105.71432 519.999996,-14.28572 c 27.5825,-99.91995 72.5675,-150.40955 82.8571,-202.85713 z"
       id="path3685-9"
       inkscape:connector-curvature="0"
       sodipodi:nodetypes="zzzzzccccz" />
    <path
       style="fill:#fff116;fill-opacity:0.21276598"
       d="m -89.107691,622.50685 c -0.0017,-177.17857 -0.854136,-425.09069 -1.894315,-550.915801 l -1.891236,-228.772939 179.751459,1.13583 c 163.848003,1.03535 180.076853,1.55874 183.429483,5.9158 2.02292,2.62898 21.50263,31.77997 43.28829,64.779966 21.78566,33 49.49034,71.571429 61.566,85.71428596 28.9818,33.94316004 39.83446,56.25716904 54.21671,111.47432804 5.97689,22.9469 2.67917,40.97984 -19.92225,108.94099 -32.60709,98.0476 -34.31789,122.88728 -11.58163,168.15611 7.10325,14.14286 24.969,42.08949 39.70165,62.10363 14.73266,20.01414 30.70326,43.79986 35.49023,52.85714 28.97789,54.82834 48.6132,177.01169 36.6238,227.89637 -2.75228,11.68103 -15.83908,43.17429 -31.46254,75.71429 -25.51609,53.14397 -47.31257,106.31737 -47.31257,115.42088 0,2.33303 -1.20972,4.98952 -2.68826,5.90332 -2.06111,1.27383 -463.402348,15.60551 -508.026028,15.78194 l -9.285714,0.0367 -0.0031,-322.14286 z"
       id="path4605"
       inkscape:connector-curvature="0" />
  </g>
  <g
     inkscape:groupmode="layer"
     id="layer15"
     inkscape:label="Layer 15"
     style="display:none">
    <path
       style="fill:none;fill-rule:evenodd;stroke:#000000;stroke-width:1px;stroke-linecap:butt;stroke-linejoin:miter;stroke-opacity:1"
       d="m 484.90969,-158.82981 c 0,0 -17.93,102.163143 -34.2858,160.0000024 -16.3557,57.8368686 -72.5885,120.4091376 -65.7142,185.7142876 7.2501,68.87531 93.3878,96.0077 108.5714,177.14286 15.1836,81.13516 -49.4539,187.046 -51.4286,282.85714 -0.852,41.34035 17.1429,122.85714 17.1429,122.85714 l 65.7143,162.85717 c 0,0 -588.571504,37.14278 -602.857204,8.5714 -14.2857,-28.5714 -2.8571,-1100 -2.8571,-1100 z"
       id="path3703-3"
       inkscape:connector-curvature="0"
       sodipodi:nodetypes="czszaccscc" />
    <path
       style="fill:#ff3d16;fill-opacity:0.21276598"
       d="m -42.053286,947.75608 c -34.852011,-3.39997 -34.628759,-3.16483 -37.48737,-39.48657 -2.753911,-34.9914 -2.368665,-1035.70855 0.405887,-1054.33409 l 1.808859,-12.14286 279.82493,0 c 164.15091,0 279.82494,1.06418 279.82494,2.57433 0,6.41891 -23.48691,118.067956 -30.02874,142.746848 -4.88826,18.4407482 -16.28455,46.082368 -34.50252,83.685585 -32.35703,66.787297 -38.76283,89.966867 -33.44397,121.018067 4.24154,24.76203 14.41652,41.11163 49.24532,79.1296 32.13957,35.08252 43.28005,50.84672 51.8728,73.40192 13.52968,35.5142 10.33025,73.11937 -13.15212,154.58651 -30.94751,107.36591 -35.16963,132.78169 -29.97203,180.42237 6.9534,63.73432 12.77695,84.7912 47.04949,170.12266 l 32.35014,80.54503 -14.7092,1.59783 c -14.52217,1.57748 -126.69197,7.45345 -248.99488,13.04348 -85.7014,3.91712 -271.951856,5.83446 -300.091536,3.08929 z"
       id="path4607"
       inkscape:connector-curvature="0" />
  </g>
  <g
     inkscape:groupmode="layer"
     id="layer16"
     inkscape:label="Layer 16"
     style="display:none">
    <path
       style="fill:none;fill-rule:evenodd;stroke:#000000;stroke-width:1px;stroke-linecap:butt;stroke-linejoin:miter;stroke-opacity:1"
       d="m 580.8045,943.40122 c 0,0 17.93,-102.16314 34.2858,-160 16.3557,-57.83687 72.5885,-120.40913 65.7142,-185.71428 -7.2501,-68.87531 -93.3878,-96.0077 -108.5714,-177.14287 -15.1836,-81.13516 49.4539,-187.046 51.4286,-282.85714 C 624.5137,96.346577 606.5188,14.829737 606.5188,14.829737 L 540.8045,-148.02736 c 0,0 588.5716,-37.1428 602.8573,-8.5714 14.2857,28.5714 2.8571,1099.99998 2.8571,1099.99998 z"
       id="path3703-3-6"
       inkscape:connector-curvature="0"
       sodipodi:nodetypes="czszaccscc" />
    <path
       style="fill:#ee26a0;fill-opacity:0.21276598"
       d="m 584.60967,936.56202 c 0,-8.7326 19.47936,-102.34817 28.3737,-136.36077 6.18646,-23.65746 14.32343,-43.85383 31.442,-78.04063 30.09507,-60.10163 37.32716,-81.71011 37.32716,-111.52829 0,-35.86742 -8.9859,-53.6824 -48.18244,-95.52402 -30.31874,-32.36472 -39.02931,-44.0612 -49.60526,-66.60955 -7.89682,-16.83631 -9.33326,-23.42111 -10.30481,-47.23848 -1.45342,-35.6304 1.51725,-51.74112 24.03303,-130.33743 23.79354,-83.05657 27.96158,-106.83169 26.14426,-149.13029 -2.77322,-64.547148 -10.43372,-94.781242 -46.94478,-185.279354 -17.97209,-44.546506 -32.24526,-81.424906 -31.71815,-81.952016 0.5271,-0.5271 36.29425,-2.97689 79.48255,-5.44398 277.53637,-15.85397 504.11457,-18.40089 516.70727,-5.8082 4.7011,4.7011 6.1246,109.205539 6.2454,458.48355 0.074,214.5 -0.7607,446.25 -1.8552,515 l -1.9898,125 -279.5775,0 c -269.05358,0 -279.57743,-0.19688 -279.57743,-5.23054 z"
       id="path4611"
       inkscape:connector-curvature="0" />
  </g>
  <g
     inkscape:groupmode="layer"
     id="layer7"
     inkscape:label="Layer 7"
     style="display:none">
    <path
       style="display:inline;fill:none;fill-rule:evenodd;stroke:#000000;stroke-width:1px;stroke-linecap:butt;stroke-linejoin:miter;stroke-opacity:1"
       d="m 445.56289,-153.42911 c -31.2223,48.81234 -44.2299,110.535833 -78.1207,155.0449329 -71.4059,93.7778801 -93.4462,120.0048771 -120.4507,174.9550571 -27.0046,54.95019 -55.2105,122.52349 -47.1429,181.42858 8.0676,58.90508 46.3672,105.30659 91.4286,140 29.1144,22.41565 82.3512,28.71544 111.4285,80 26.4016,58.90076 -25.1056,101.30325 22.8572,189.99999 l 82.8571,165.71432 -588.571404,7.1428 2.85714,-1091.42854 z"
       id="path3364"
       inkscape:connector-curvature="0"
       sodipodi:nodetypes="cszzscccccc" />
    <path
       style="fill:#ee26a0;fill-opacity:0.21276598"
       d="m -76.937254,395.82185 c 1.16056,-299.216112 2.304822,-544.20034 2.542804,-544.4094 0.237983,-0.20906 116.364695,-0.93853 258.05936,-1.62105 l 257.62668,-1.24093 -11.12789,22.13228 c -6.12034,12.17275 -15.81497,33.473653 -21.54363,47.335333 -19.53557,47.270343 -31.99828,68.055492 -74.21488,123.77448 -53.13389,70.128027 -71.08312,97.430967 -91.35134,138.956597 -32.84906,67.3012 -49.46441,128.136 -45.84236,167.84529 4.20205,46.06783 24.23738,84.8476 64.55707,124.95457 25.38649,25.2526 30.5706,28.93286 64.20206,45.57774 41.79317,20.68426 62.89874,37.89609 74.1464,60.4672 8.52965,17.11683 9.42383,35.9202 4.0384,84.92412 -5.46877,49.76203 -2.78226,58.3982 53.17371,170.93508 26.00429,52.29903 47.28054,95.48689 47.28054,95.973 0,0.48615 -83.25,1.73803 -185,2.782 -101.75,1.044 -233.07283,2.74075 -291.828516,3.77055 l -106.828519,1.8724 2.110111,-544.02926 z"
       id="path4613"
       inkscape:connector-curvature="0" />
    <path
       style="fill:#ff3500;fill-opacity:0.21276598"
       d="m -77.007993,397.22856 c 1.130082,-298.418365 2.92065,-543.44219 3.979038,-544.49739 2.721162,-2.71295 511.924655,-4.27601 511.924485,-1.57142 -8e-5,1.22339 -3.69468,9.58053 -8.21026,18.57143 -4.51557,8.99091 -13.10708,27.91853 -19.09228,42.061383 -22.62266,53.456783 -37.31983,77.292292 -94.58712,153.39898 -39.8022,52.896007 -52.124,72.502677 -74.99282,119.329737 -35.8764,73.46183 -50.09179,130.71608 -43.30898,174.43234 10.18018,65.61289 58.74949,126.63429 127.98195,160.79374 34.3456,16.9462 59.91048,37.36032 70.54397,56.33092 9.72111,17.34288 9.92643,20.29814 7.24423,104.28571 -1.49843,46.92129 -1.91457,45.71669 55.68065,161.18092 l 44.05326,88.31591 -26.2278,1.60654 c -14.42528,0.8836 -91.15637,2.28955 -170.51351,3.12429 -79.35715,0.83474 -198.79057,2.34977 -265.407612,3.36674 l -121.121896,1.84903 2.054695,-542.57886 z"
       id="path4649"
       inkscape:connector-curvature="0" />
  </g>
  <g
     inkscape:groupmode="layer"
     id="layer6"
     inkscape:label="Layer 6"
     style="display:none">
    <path
       style="display:inline;fill:none;fill-rule:evenodd;stroke:#000000;stroke-width:1px;stroke-linecap:butt;stroke-linejoin:miter;stroke-opacity:1"
       d="M 395.48616,929.43011 294.96066,770.15892 c -41.2108,-65.29386 89.736,-143.79605 83.3826,-197.87167 -10.6792,-90.89478 -68.5714,-148.57144 -82.8571,-165.7143 -14.2858,-17.14286 -79.4852,-128.839 -80,-202.85714 -0.5149,-74.01815 74.2857,-200.0000053 80,-211.4285753 5.7142,-11.4285797 102.8571,-148.5714447 102.8571,-148.5714447 l -482.857103,-5.7143 5.7142,1094.28572 z"
       id="path3441-5"
       inkscape:connector-curvature="0"
       sodipodi:nodetypes="cssszscccc" />
    <path
       style="fill:#ff0000;fill-opacity:0.21276598"
       d="m -79.356197,414.33291 c -0.999039,-284.25435 -2.578743,-530.16648 -3.510454,-546.47144 l -1.69402,-29.64538 52.442316,1.76166 c 28.8432716,0.96891 136.335175,2.58293 238.870885,3.58671 102.53572,1.00378 186.42857,2.30227 186.42857,2.88553 0,0.58326 -20.04994,29.6668 -44.55543,64.630091 -51.87691,74.015565 -60.11202,87.6091195 -88.38371,145.893294 -37.86863,78.068955 -51.07691,127.843785 -44.62126,168.152985 5.37363,33.55289 19.70766,74.26503 41.95423,119.16035 19.82192,40.0022 27.06757,51.07057 62.89452,96.07728 28.4946,35.7956 55.68245,101.48486 55.50605,134.10954 -0.0934,17.28863 -7.20034,30.12466 -42.8088,77.31903 -46.0642,61.05212 -55.23043,84.24449 -43.58337,110.27477 3.09643,6.92032 27.09629,46.48018 53.333,87.9108 26.23672,41.43066 47.3152,75.69972 46.84109,76.15349 -0.47412,0.45374 -105.80995,1.77054 -234.07961,2.92617 l -233.217574,2.10117 -1.816433,-516.82605 z"
       id="path4623"
       inkscape:connector-curvature="0" />
    <path
       style="fill:#ff0000;fill-opacity:0.21276598"
       d="m -79.193415,404.15379 c -1.040545,-289.65582 -2.732097,-535.40131 -3.759006,-546.1011 l -1.867106,-19.45416 66.857458,1.80541 c 36.7716,0.99298 143.030469,2.7775 236.130829,3.96562 93.10034,1.18811 169.96571,2.85257 170.81194,3.6988 0.84623,0.84623 -16.61937,27.74464 -38.81245,59.774255 -45.88849,66.227417 -61.75263,92.12776268 -85.3116,139.28284 -35.97792,72.012455 -51.96132,123.848395 -50.33392,163.238535 2.23123,54.00552 42.19092,146.26186 92.47674,213.50434 15.54323,20.78455 32.87986,46.58083 38.52583,57.32509 15.39186,29.29077 28.468,70.424 28.80123,90.59914 0.33972,20.56795 -2.22963,25.41823 -43.69423,82.484 -44.395,61.09875 -52.49348,82.41517 -40.95563,107.80172 3.14246,6.91428 26.47832,46 51.85746,86.85714 l 46.14394,74.28571 -17.96277,1.7706 c -9.87951,0.97383 -114.49994,2.67923 -232.48979,3.7898 l -214.527027,2.01918 -1.891898,-526.64692 z"
       id="path4625"
       inkscape:connector-curvature="0" />
  </g>
  <g
     inkscape:groupmode="layer"
     id="layer9"
     inkscape:label="Layer 9"
     style="display:none">
    <path
       style="display:inline;fill:none;fill-rule:evenodd;stroke:#000000;stroke-width:1px;stroke-linecap:butt;stroke-linejoin:miter;stroke-opacity:1"
       d="M 655.94231,-153.43011 756.46781,5.8410834 c 41.2108,65.2938596 -89.736,143.7960466 -83.3826,197.8716666 10.6792,90.89478 68.5714,148.57144 82.8571,165.7143 14.2858,17.14286 79.4852,128.839 80,202.85714 0.5149,74.01815 -74.2857,200 -80,211.42857 -5.7142,11.42858 -102.8571,148.57145 -102.8571,148.57145 l 482.85709,5.7143 -5.7142,-1094.28572 z"
       id="path3441-5-9"
       inkscape:connector-curvature="0"
       sodipodi:nodetypes="cssszscccc" />
    <path
       style="fill:#a1b300;fill-opacity:0.21276598"
       d="m 839.22336,932.84731 c -98.0339,-1.26698 -178.80108,-2.8612 -179.48262,-3.54272 -0.68154,-0.68154 18.89939,-29.972 43.51318,-65.08988 52.0416,-74.25072 60.75777,-88.6342 88.81565,-146.56412 23.75668,-49.04943 39.4711,-93.66528 43.52995,-123.58886 5.65322,-41.67791 -6.40609,-89.68865 -39.60075,-157.65928 -20.341,-41.65097 -29.40752,-55.86546 -63.07935,-98.8956 -33.41693,-42.7044 -56.88117,-99.24089 -56.88117,-137.05369 0,-17.73225 8.56421,-33.21494 42.01566,-75.95729 41.19801,-52.640461 52.99348,-78.795452 46.4667,-103.034081 -1.65566,-6.148631 -25.89883,-47.482414 -53.87371,-91.852851 l -50.86343,-80.673518 233.12739,-1.71278 c 128.22004,-0.94204 233.65564,-1.2709 234.30134,-0.73082 1.3224,1.10615 5.5004,667.94063 5.784,923.15789 l 0.1849,166.42857 -57.8571,-0.46372 c -31.8215,-0.25514 -138.06674,-1.50031 -236.10064,-2.76725 z"
       id="path4627"
       inkscape:connector-curvature="0" />
  </g>
  <g
     inkscape:groupmode="layer"
     id="layer5"
     inkscape:label="Layer 5"
     style="display:none">
    <path
       style="display:inline;fill:none;fill-rule:evenodd;stroke:#000000;stroke-width:1px;stroke-linecap:butt;stroke-linejoin:miter;stroke-opacity:1"
       d="m 295.48617,-153.42775 c 28.57143,142.857139 93.5363,263.39092 82.85715,354.28571 -10.67915,90.89479 -68.57143,148.57143 -82.85715,165.71429 -14.28571,17.14286 -79.48516,128.839 -80,202.85714 -0.51484,74.01814 74.28572,200 80,211.42857 5.71429,11.42858 102.85715,148.57145 102.85715,148.57145 l -482.857154,5.7143 5.71429,-1094.28575 z"
       id="path3441"
       inkscape:connector-curvature="0"
       sodipodi:nodetypes="czszscccc" />
    <path
       style="fill:#f56900;fill-opacity:0.21276598"
       d="m -82.855097,904.12559 c 0.925357,-16.21174 2.498661,-261.75797 3.496233,-545.65831 l 1.813766,-516.18245 81.7916718,1.46519 c 44.9854202,0.80586 128.5097562,2.30224 185.6096462,3.3253 l 103.81797,1.8601 10.81223,42.85714 c 5.94674,23.571432 20.54554,73.824478 32.4418,111.6734377 27.25625,86.7181173 35.86785,120.6971823 38.89008,153.4496823 5.95535,64.53951 -15.8974,127.43551 -65.72308,189.1626 -35.31666,43.75237 -63.6796,96.30191 -82.16712,152.23537 -18.08057,54.7022 -18.18334,86.37154 -0.45631,140.62177 21.33823,65.30174 56.43143,130.27954 117.96723,218.42571 l 47.97223,68.71715 -70.82938,1.77488 c -38.95614,0.9762 -146.49461,2.66892 -238.974388,3.7616 l -168.145046,1.98669 1.682467,-29.47586 z"
       id="path4629"
       inkscape:connector-curvature="0" />
  </g>
  <g
     inkscape:groupmode="layer"
     id="layer10"
     inkscape:label="Layer 10"
     style="display:none">
    <path
       style="display:inline;fill:none;fill-rule:evenodd;stroke:#000000;stroke-width:1px;stroke-linecap:butt;stroke-linejoin:miter;stroke-opacity:1"
       d="m 755.94237,929.42775 c -28.5714,-142.85714 -93.5363,-263.39092 -82.8571,-354.28571 10.6791,-90.89479 68.5714,-148.57143 82.8571,-165.71429 14.2858,-17.14286 79.4852,-128.839 80,-202.85714 0.5149,-74.01814 -74.2857,-200.0000023 -80,-211.4285723 C 750.22817,-16.286542 653.08527,-153.42941 653.08527,-153.42941 l 482.85713,-5.7143 -5.7142,1094.28575 z"
       id="path3441-1"
       inkscape:connector-curvature="0"
       sodipodi:nodetypes="czszscccc" />
    <path
       style="fill:#f54ac4;fill-opacity:0.21276598"
       d="m 928.89539,930.21619 c -59.71429,-1.04691 -122.71429,-2.10897 -140,-2.36008 l -31.42857,-0.45658 -10.70011,-43.51777 C 740.88166,859.94699 727.00697,812.07828 715.93407,777.50685 670.5609,635.84422 665.01411,591.43271 684.97693,529.64193 697.55858,490.69802 709.739,470.54068 758.77919,407.50685 777.09438,383.96539 810.03595,317.97288 822.95835,278.93542 843.95219,215.51488 841.40869,177.09953 811.32422,103.22113 784.24,36.710455 760.42932,-4.0860223 690.92957,-103.05928 l -34.23448,-48.75267 196.10015,-1.75549 c 107.85509,-0.96552 215.22396,-2.47646 238.59756,-3.35764 l 42.4974,-1.60216 -1.7991,452.30275 c -0.9895,248.76654 -2.5884,494.40991 -3.553,545.8742 l -1.754,93.57142 -44.6586,-0.55071 c -24.5623,-0.30289 -93.51583,-1.40729 -153.23011,-2.45423 z"
       id="path4633"
       inkscape:connector-curvature="0" />
  </g>
  <g
     inkscape:groupmode="layer"
     id="layer4"
     inkscape:label="Layer 4"
     style="display:none">
    <path
       style="display:inline;fill:none;fill-rule:evenodd;stroke:#000000;stroke-width:1px;stroke-linecap:butt;stroke-linejoin:miter;stroke-opacity:1"
       d="m 278.66107,-153.42657 c 2.8571,159.9999971 -137.4729,194.849467 -122.8571,282.85714 14.6157,88.00768 115.0175,152.48849 118.5714,225.71428 3.5539,73.22579 -61.9511,156.70175 -78.5714,202.85715 -16.6204,46.1554 -17.4051,93.39105 -10.0001,137.14285 7.4051,43.75181 18.0774,57.07744 35.7143,80.57143 36.2645,48.30756 72.5086,135.14286 52.8572,165.14286 l -347.142899,0 -1.4285,-1091.42857 z"
       id="path3362"
       inkscape:connector-curvature="0"
       sodipodi:nodetypes="czzzzscccc" />
    <path
       style="fill:#f5e916;fill-opacity:0.21276598"
       d="m -70.38216,878.22113 c -0.509719,-33.39285 -1.209514,-278.32142 -1.555099,-544.28571 l -0.628338,-483.57143 126.702745,0 c 69.686512,0 148.326292,-0.85281 174.755072,-1.89513 l 48.05231,-1.89513 -1.65897,25.60666 C 272.21747,-80.463362 254.23745,-39.984471 214.32667,9.4185977 162.59892,73.449221 156.1218,84.425721 153.91685,111.79256 c -2.75228,34.16006 14.76272,71.30766 66.00968,140 15.24046,20.42857 33.13349,48.07143 39.76232,61.42857 11.59937,23.37292 12.04122,25.25223 11.75545,50 -0.38554,33.39049 -8.9676,60.04446 -36.11885,112.17726 -37.96625,72.89857 -42.17358,82.05589 -48.22638,104.9656 -4.74195,17.9482 -6.05626,31.4478 -6.11973,62.85714 -0.1262,62.46595 8.14857,91.15229 38.42373,133.20412 38.96872,54.12717 66.63669,129.2918 56.92746,154.65303 l -3.008,7.85714 -171.38896,0 -171.388968,0 -0.926762,-60.71429 z"
       id="path4639"
       inkscape:connector-curvature="0" />
  </g>
  <g
     inkscape:groupmode="layer"
     id="layer8"
     inkscape:label="Layer 8"
     style="display:none">
    <path
       style="display:inline;fill:none;fill-rule:evenodd;stroke:#000000;stroke-width:1px;stroke-linecap:butt;stroke-linejoin:miter;stroke-opacity:1"
       d="m 608.72283,935.14339 c 31.2223,-48.81233 44.2299,-110.53582 78.1207,-155.04492 71.4059,-93.77789 93.4462,-120.00489 120.4507,-174.95507 27.0046,-54.95019 55.2105,-122.52349 47.1429,-181.42858 -8.0676,-58.90508 -46.3672,-105.30659 -91.4286,-140 -29.1144,-22.41565 -82.3512,-28.71544 -111.4285,-80 -26.4016,-58.90076 25.1056,-101.30325 -22.8572,-189.999979 l -82.8571,-165.714331 588.57147,-7.1428 -2.8571,1091.42854 z"
       id="path3364-2"
       inkscape:connector-curvature="0"
       sodipodi:nodetypes="cszzscccccc" />
    <path
       style="fill:#f5e916;fill-opacity:0.21276598"
       d="m 622.60352,914.32488 c 5.43758,-10.82135 15.34111,-32.53232 22.00783,-48.2466 21.9292,-51.68986 33.21349,-70.86057 70.63459,-120 68.24204,-89.61192 93.8944,-132.22852 119.49682,-198.5216 38.65891,-100.10072 26.10323,-173.62555 -40.8124,-238.99312 -24.16721,-23.60811 -34.05022,-30.35583 -75.03497,-51.23083 -48.19094,-24.54537 -67.8952,-46.55068 -72.75786,-81.25445 -0.99084,-7.07143 0.12467,-29.01686 2.47891,-48.76763 4.50148,-37.764889 3.11467,-61.301778 -4.95812,-84.148689 -2.20951,-6.253169 -24.18776,-51.688129 -48.84055,-100.966575 -24.6528,-49.278446 -44.23687,-90.183576 -43.52017,-90.900276 0.7167,-0.7167 98.18369,-2.45172 216.5933,-3.8556 118.4096,-1.40389 248.9979,-3.11985 290.1963,-3.81325 l 74.9061,-1.26073 -1.7289,543.28495 c -0.9508,298.80671 -1.8729,543.47637 -2.0489,543.71031 -0.176,0.234 -116.4603,1.37352 -258.40931,2.53234 l -258.08919,2.10695 9.88652,-19.6752 z"
       id="path4641"
       inkscape:connector-curvature="0" />
  </g>
  <g
     inkscape:groupmode="layer"
     id="layer11"
     inkscape:label="Layer 11"
     style="display:none">
    <path
       style="display:inline;fill:none;fill-rule:evenodd;stroke:#000000;stroke-width:1px;stroke-linecap:butt;stroke-linejoin:miter;stroke-opacity:1"
       d="m 776.23433,-159.06258 c -2.8571,160.00000274 137.47286,194.849473 122.85706,282.85714 -14.61566,88.00767 -115.01746,152.48848 -118.57136,225.71427 -3.5539,73.22579 61.9511,156.70175 78.5714,202.85715 16.6204,46.1554 17.4051,93.39105 10.0001,137.14285 -7.4051,43.75181 -18.0774,57.07744 -35.7143,80.57143 -36.2645,48.30756 -72.5086,135.14286 -52.8572,165.14286 l 347.14287,0 1.4285,-1091.42856 z"
       id="path3362-2"
       inkscape:connector-curvature="0"
       sodipodi:nodetypes="czzzzscccc" />
    <path
       style="fill:#ff3d16;fill-opacity:0.21276598"
       d="m 779.56734,927.69468 c -12.98114,-24.25549 15.6347,-101.71503 60.33954,-163.33172 7.52521,-10.372 16.15655,-24.63063 19.18077,-31.68583 16.75526,-39.08845 20.30703,-115.83002 7.50461,-162.14897 -2.41382,-8.73314 -19.83363,-46.7356 -38.7107,-84.44988 -62.80667,-125.48075 -61.86235,-145.66666 11.49478,-245.71429 35.42915,-48.3198 51.66033,-77.15388 58.70417,-104.28571 9.58761,-36.930108 0.18091,-62.357142 -41.75135,-112.857145 -32.77608,-39.472992 -46.51966,-59.593763 -58.30963,-85.366026 -12.011,-26.255417 -18.55271,-53.157869 -18.55271,-76.297049 l 0,-18.44085 173.57143,1.06941 c 95.46425,0.58818 174.01795,1.48665 174.56365,1.9966 0.5458,0.50995 0.039,245.302098 -1.1266,543.98254 l -2.1189,543.05537 -170.91569,0 c -166.05518,0 -170.99981,-0.15714 -173.87337,-5.52645 z"
       id="path4609"
       inkscape:connector-curvature="0" />
  </g>
  <g
     inkscape:groupmode="layer"
     id="layer12"
     inkscape:label="Layer 12"
     style="display:none">
    <path
       style="display:inline;fill:none;fill-rule:evenodd;stroke:#000000;stroke-width:1px;stroke-linecap:butt;stroke-linejoin:miter;stroke-opacity:1"
       d="m 894.70587,-157.63768 c 0,0 -5.4658,114.505982 -10.8572,151.4285617 -5.3913,36.9225903 -32.5074,115.1694183 -39.1428,158.5714383 -6.6355,43.40201 19.6625,89.51018 37.1428,101.42857 l 62.85716,42.85714 c 60.66917,41.36533 26.55079,114.8837 22.85714,124.28571 -15.71429,40 -47.1428,75.7143 -57.1429,105.7143 -10,30 -11.0759,66.53034 -2.8571,79.99999 51.42857,84.28571 2.8571,114.28572 -25.7143,152.85714 -20.4255,27.57444 10,171.4286 10,171.4286 l 0,-1.4286 234.28573,4.2857 2.8571,-1088.57141 z"
       id="path3339-7"
       inkscape:connector-curvature="0"
       sodipodi:nodetypes="czzssssssccccc" />
    <path
       style="fill:#cd8e6d;fill-opacity:0.21276598"
       d="m 1006.3565,929.98916 c -61.11073,-1.27714 -111.78399,-2.99565 -112.60727,-3.81894 -6.10989,-6.10989 -19.32695,-120.60263 -16.43716,-142.38689 2.36108,-17.79871 3.9874,-20.85885 24.4691,-46.04208 19.20743,-23.61646 24.99339,-34.17652 28.2362,-51.53443 3.43829,-18.40429 -0.70151,-38.4474 -13.82581,-66.93857 -9.53006,-20.68854 -11.58189,-28.23497 -11.58189,-42.59717 0,-35.40666 7.25629,-55.04337 39.96074,-108.1404 41.3993,-67.21346 48.30841,-121.5394 19.84835,-156.0664 -4.79461,-5.81669 -26.77456,-22.97657 -48.84434,-38.13312 -43.00196,-29.5318 -50.7028,-38.06185 -62.78163,-69.54194 -11.0158,-28.70963 -9.08098,-48.6012 12.65845,-130.139514 11.40893,-42.791631 20.19111,-82.3106083 21.90523,-98.571428 2.79162,-26.482557 8.68178,-111.570938 8.68178,-125.415708 l 0,-6.9418 114.73795,1.86912 c 63.1059,1.02802 115.2469,2.37797 115.8688,2.99988 0.6219,0.6219 0.2122,244.918379 -0.9104,542.88105 -1.4626,388.1956 -2.9236,541.62137 -5.1544,541.29537 -1.7124,-0.25028 -53.113,-1.49986 -114.2237,-2.77703 z"
       id="path4637"
       inkscape:connector-curvature="0" />
  </g>
  <g
     inkscape:groupmode="layer"
     id="layer3"
     inkscape:label="Layer 3"
     style="display:none">
    <path
       style="display:inline;fill:none;fill-rule:evenodd;stroke:#000000;stroke-width:1px;stroke-linecap:butt;stroke-linejoin:miter;stroke-opacity:1"
       d="m 148.4066,-154.78053 c 0,0 5.46577,114.505987 10.85714,151.4285671 5.39137,36.9225809 32.50739,115.1694129 39.14286,158.5714329 6.63546,43.40201 -19.66255,89.51018 -37.14286,101.42857 L 98.4066,299.50518 c -60.66915,41.36533 -26.55079,114.8837 -22.85714,124.28571 15.71429,40 47.14285,75.7143 57.14286,105.7143 10,30 11.07591,66.53034 2.85714,79.99999 -51.42857,84.28571 -2.85714,114.28572 25.71429,152.85714 20.42551,27.57444 -10.00001,171.4286 -10.00001,171.4286 l 0,-1.4286 -234.28571,4.2857 -2.85714,-1088.57141 z"
       id="path3339"
       inkscape:connector-curvature="0"
       sodipodi:nodetypes="czzssssssccccc" />
    <path
       style="fill:#cde71d;fill-opacity:0.21276598"
       d="M -82.06814,557.74736 C -83.109628,350.45108 -83.961755,106.69085 -83.961755,16.057995 l 0,-164.787015 57.857143,-1.87456 c 31.8214286,-1.03101 83.6832,-1.87794 115.24838,-1.88207 l 57.391242,-0.008 3.52191,57.857142 c 5.04045,82.803551 7.19835,96.8159914 24.96974,162.142857 20.73416,76.217831 24.1867,96.054031 20.59751,118.340831 -6.5796,40.85554 -19.46624,58.15768 -68.23032,91.60885 -54.443433,37.34712 -62.88563,48.35343 -65.048059,84.80472 -2.089686,35.22508 6.23754,58.57174 42.736429,119.81826 25.25939,42.3862 31.01999,57.83002 33.00621,88.48768 1.58545,24.4716 1.50474,24.8582 -10.22572,48.98263 -24.8761,51.15923 -21.82014,79.01569 13.30678,121.29706 24.90055,29.97217 24.90921,29.99465 24.52649,63.67903 -0.32191,28.33225 -6.52411,82.26385 -12.87446,111.95051 l -2.83547,13.25531 -69.116762,1.80569 c -38.014217,0.99314 -89.8003456,2.09969 -115.080286,2.459 l -45.963528,0.65329 -1.893614,-376.90235 z"
       id="path4635"
       inkscape:connector-curvature="0" />
  </g>
  <g
     inkscape:groupmode="layer"
     id="layer13"
     inkscape:label="Layer 13"
     style="display:inline">
    <path
       style="display:inline;fill:none;fill-rule:evenodd;stroke:#000000;stroke-width:1px;stroke-linecap:butt;stroke-linejoin:miter;stroke-opacity:1"
       d="m 968.87314,935.28778 c 0,0 -26.5867,-112.5465 -41.4285,-151.7143 -51.9892,-137.1997 64.0448,-186.337 56.7221,-253.9673 -5.2936,-48.8898 -9.2527,-34.1652 -19.5793,-64.6041 -48.5714,-143.1708 48.83496,-159.3354 42.85716,-270 -5.9778,-110.664602 -98.07166,-141.015302 -87.97636,-181.648202 12.1591,-48.9393 26.9726,-97.1844 49.4049,-164.066098 0,0 144.58466,-2.8372 158.57146,-2.8571 l 4.2857,1086.8571 z"
       id="path3341-0"
       inkscape:connector-curvature="0"
       sodipodi:nodetypes="cssszscccc" />
    <path
       style="fill:#de8787;fill-opacity:0.21276598;stroke-width:1;stroke-miterlimit:4;stroke-dasharray:none;stroke:none"
       d="m 969.63116,929.97633 c -0.73457,-2.14391 -6.6748,-25.11234 -13.20053,-51.04091 -6.52573,-25.92857 -17.65972,-65.14286 -24.7422,-87.14286 -10.04528,-31.2032 -13.20083,-45.73363 -14.34863,-66.07151 -2.37854,-42.14529 4.69173,-63.53854 40.35664,-122.11143 11.61218,-19.0708 22.71594,-39.7064 24.67502,-45.85689 5.83886,-18.33091 2.13325,-51.46228 -8.45372,-75.58377 -13.39368,-30.51628 -20.16521,-60.36451 -20.16521,-88.88628 0,-30.43277 4.55756,-46.439 24.6045,-86.41149 23.37117,-46.60074 29.94097,-68.69208 29.94097,-100.67837 0,-52.37783 -14.94725,-88.90057 -56.16,-137.223797 -36.10954,-42.339562 -35.34335,-39.156948 -21.53561,-89.454517 6.34259,-23.104211 17.72268,-61.293371 25.28908,-84.864796 l 13.7571,-42.85715 77.05203,-1.8155 c 42.3785,-0.99853 77.4212,-1.48645 77.8724,-1.08427 1.3426,1.19654 5.6395,1079.91983 4.3076,1081.42346 -0.6727,0.75946 -36.4785,1.87071 -79.5685,2.46948 -64.34317,0.89412 -78.58407,0.392 -79.68094,-2.8094 z"
       id="path4574"
       inkscape:connector-curvature="0"
       inkscape:export-xdpi="90"
       inkscape:export-ydpi="90" />
    <path
       style="display:inline;fill:#de8787;fill-opacity:0.21276598"
       d="m 972.03177,934.39979 c -0.7346,2.1439 -6.6748,25.1122 -13.2005,51.0408 -6.5258,25.92851 -17.6597,65.14281 -24.7422,87.14281 -10.0453,31.2032 -13.2009,45.7337 -14.3486,66.0716 -2.3785,42.1452 4.6917,63.5385 40.3566,122.1114 11.6122,19.0708 22.7159,39.7064 24.675,45.8569 5.8389,18.3309 2.1333,51.4623 -8.4537,75.5837 -13.3937,30.5163 -20.1652,60.3646 -20.1652,88.8863 0,30.4328 4.5575,46.439 24.6045,86.4115 23.37113,46.6008 29.94093,68.6921 29.94093,100.6784 0,52.3778 -14.94723,88.9006 -56.16003,137.2238 -36.1094,42.3395 -35.3433,39.1569 -21.5356,89.4545 6.3426,23.1042 17.7227,61.2934 25.2891,84.8648 l 13.7571,42.8571 77.05203,1.8155 c 42.3785,0.9986 77.4212,1.4865 77.8724,1.0843 1.3426,-1.1965 5.6395,-1079.91971 4.3076,-1081.42341 -0.6727,-0.7594 -36.4785,-1.8707 -79.5685,-2.4694 -64.34313,-0.8942 -78.58403,-0.392 -79.68093,2.8094 z"
       id="path4574-0"
       inkscape:connector-curvature="0" />
    <path
       style="display:inline;fill:#de8787;fill-opacity:0.21276598"
       d="m -76.329029,1163.2977 c -0.9604,127.6786 -2.203,371.125 -2.7614,540.992 l -1.0152,308.8492 78.4830004,1.9877 c 43.1655996,1.0933 78.9984996,1.4723 79.6285996,0.8421 0.6302,-0.6301 8.0524,-27.3639 16.4939,-59.4084 8.441499,-32.0444 20.077399,-72.4054 25.857499,-89.6911 8.0247,-23.998 10.8788,-37.8464 12.0717,-58.5734 2.408,-41.8383 -6.3182,-68.4458 -39.379899,-120.075 -7.5743,-11.8281 -17.2149,-29.0271 -21.4236,-38.2201 -6.9319,-15.1412 -7.5195,-19.0336 -6.243,-41.3516 1.1301,-19.758 3.1908,-28.4456 10.4058,-43.8683 12.4134,-26.5348 20.3207,-61.6174 20.3448,-90.265 0.023,-27.7154 -8.0632,-55.5428 -25.4696,-87.6466 -25.4145,-46.8736 -33.1305,-79.6982 -28.4882,-121.192 4.6707,-41.7472 19.9164,-72.3336 58.619899,-117.6046 30.6652,-35.8687 31.213,-37.8282 21.1935,-75.8162 C 114.29857,1043.1 92.827071,972.45529 83.878871,946.86909 l -3.9968,-11.4284 -41.1502,-1.7839 c -22.6326,-0.9811 -57.3872,-1.9454 -77.2325,-2.1428 l -36.0823,-0.359 -1.7461,232.14271 z"
       id="path3741-6"
       inkscape:connector-curvature="0" />
    <path
       style="display:inline;fill:#de8787;fill-opacity:0.21276598"
       d="m 74.539596,3094.1716 c 0.7346,-2.1439 6.6748,-25.1123 13.2005,-51.0409 6.525798,-25.9285 17.659694,-65.1428 24.742194,-87.1428 10.04533,-31.2032 13.20093,-45.7337 14.34863,-66.0715 2.3786,-42.1453 -4.6917,-63.5386 -40.356624,-122.1115 -11.6122,-19.0708 -22.7159,-39.7064 -24.675,-45.8569 -5.8389,-18.3309 -2.1333,-51.4623 8.4537,-75.5838 13.3937,-30.5162 20.1652,-60.3645 20.1652,-88.8862 0,-30.4328 -4.5575,-46.439 -24.6045,-86.4115 -23.37107,-46.6008 -29.94087,-68.6921 -29.94087,-100.6784 0,-52.3778 14.94717,-88.9006 56.15997,-137.2238 36.109524,-42.3395 35.343324,-39.1569 21.535594,-89.4545 -6.3426,-23.1042 -17.722696,-61.2934 -25.289094,-84.8648 l -13.7571,-42.8572 -77.0519696,-1.8155 c -42.3785004,-0.9985 -77.4212004,-1.4864 -77.8724004,-1.0842 -1.3426,1.1965 -5.6395,1079.9198 -4.3076,1081.4235 0.6727,0.7594 36.4785,1.8707 79.5685004,2.4694 64.3430696,0.8942 78.5839696,0.392 79.6808696,-2.8094 z"
       id="path4574-2"
       inkscape:connector-curvature="0" />
    <path
       style="display:inline;fill:#de8787;fill-opacity:0.21276598"
       d="m 1122.9005,2865.2736 c 0.9604,-127.6786 2.203,-371.125 2.7614,-540.992 l 1.0151,-308.8492 -78.4829,-1.9878 c -43.1656,-1.0933 -78.99852,-1.4722 -79.62862,-0.842 -0.6301,0.6301 -8.0524,27.3639 -16.4939,59.4083 -8.4415,32.0445 -20.0774,72.4055 -25.85751,89.6912 -8.0247,23.998 -10.8788,37.8464 -12.0717,58.5734 -2.408,41.8383 6.3182,68.4458 39.37991,120.075 7.5743,11.8281 17.2149,29.0271 21.4236,38.2201 6.9319,15.1412 7.5195,19.0336 6.243,41.3516 -1.1301,19.758 -3.1908,28.4456 -10.4058,43.8682 -12.4134,26.5349 -20.3207,61.6175 -20.3448,90.2651 -0.023,27.7154 8.0632,55.5428 25.4696,87.6466 25.41452,46.8736 33.13052,79.6983 28.48822,121.192 -4.6707,41.7472 -19.91642,72.3336 -58.61992,117.6046 -30.66521,35.8687 -31.21301,37.8283 -21.19351,75.8162 7.69021,29.1564 29.16181,99.8011 38.10991,125.3873 l 3.9969,11.4285 41.15012,1.7839 c 22.6326,0.9811 57.3872,1.9454 77.2325,2.1428 l 36.0823,0.359 1.7461,-232.1428 z"
       id="path3741-61"
       inkscape:connector-curvature="0" />
  </g>
  <g
     inkscape:groupmode="layer"
     id="layer2"
     inkscape:label="Layer 2"
     style="display:inline">
    <path
       style="fill:none;fill-rule:evenodd;stroke:#000000;stroke-width:1px;stroke-linecap:butt;stroke-linejoin:miter;stroke-opacity:1"
       d="m 78.571428,-153.71429 c 0,0 26.586702,112.546493 41.428572,151.7142909 C 171.98912,135.19972 55.955185,184.33707 63.277871,251.96734 c 5.293558,48.88981 9.252723,34.16521 19.579272,64.6041 C 131.42857,459.74222 34.022182,475.90679 40,586.57143 c 5.977818,110.66464 98.07168,141.0153 87.97635,181.64819 -12.15908,48.93931 -26.97258,97.1844 -49.404921,164.0661 0,0 -144.584643,2.83725 -158.571429,2.85714 l -4.285714,-1086.85715 z"
       id="path3341"
       inkscape:connector-curvature="0"
       sodipodi:nodetypes="cssszscccc" />
    <path
       style="fill:#de8787;fill-opacity:0.21276598"
       d="m -78.729725,701.07828 c -0.960381,-127.67857 -2.202981,-371.12497 -2.761334,-540.992 l -1.015186,-308.84915 78.4829274,-1.98779 c 43.1656116,-1.09329 78.9985026,-1.47222 79.6286486,-0.84207 0.630149,0.63015 8.052397,27.36391 16.493886,59.408365 8.441493,32.044454 20.077383,72.4055 25.857533,89.6912141 8.02466,23.9979999 10.87874,37.8463459 12.07169,58.5733889 2.40801,41.838223 -6.31823,68.445782 -39.379906,120.075012 -7.574297,11.82806 -17.214926,29.02708 -21.42362,38.22008 -6.931877,15.1412 -7.519526,19.0336 -6.243014,41.3516 1.130091,19.75798 3.190842,28.44558 10.405808,43.86823 12.41344,26.53486 20.320694,61.61746 20.344806,90.26506 0.02343,27.7154 -8.06316,55.5428 -25.469609,87.64663 -25.414483,46.87354 -33.13046,79.6982 -28.488163,121.19194 4.67066,41.74723 19.916383,72.33357 58.619869,117.6046 30.665219,35.86874 31.212989,37.82826 21.193479,75.81617 -7.69016,29.15643 -29.161719,99.80117 -38.109848,125.38729 l -3.996871,11.42857 -41.150134,1.78383 c -22.632575,0.98111 -57.387189,1.9454 -77.232475,2.14286 l -36.082339,0.35902 -1.746148,-232.14285 z"
       id="path3741"
       inkscape:connector-curvature="0" />
  </g>
</svg>
