<?xml version="1.0" encoding="UTF-8" standalone="no"?>
<!-- Created with Inkscape (http://www.inkscape.org/) -->
<svg id="svg2" xmlns:rdf="http://www.w3.org/1999/02/22-rdf-syntax-ns#" xmlns="http://www.w3.org/2000/svg" height="161.93" width="320.17" version="1.1" xmlns:cc="http://creativecommons.org/ns#" xmlns:dc="http://purl.org/dc/elements/1.1/">
 <metadata id="metadata7">
  <rdf:RDF>
   <cc:Work rdf:about="">
    <dc:format>image/svg+xml</dc:format>
    <dc:type rdf:resource="http://purl.org/dc/dcmitype/StillImage"/>
    <dc:title/>
   </cc:Work>
  </rdf:RDF>
 </metadata>
 <g id="layer5">
  <g id="layer1" transform="matrix(0 1 -1 0 289.4 -110.65)">
   <path id="path2831" d="m151.31 261.63c16.727 18.385 40.871 37.823 76.429 22.321 35.566-15.505 42.118-36.138 44.286-67.143 3.6952-52.846-30.743-88.201-46.786-133.57-5.6316-15.926-3.3454-25.583 4.9009-28.824 7.1455-2.8085 19.211-0.0881 29.028-1.1763 18.307-2.0293 19.48-29.92-2.8572-34.286-61.786-12.077-96.963 50.486-43.214 163.93 10.847 22.894-7.4272 45.429-18.068 37.549-10.454-7.7413-16.188-15.817-20.147-28.621-27.386-88.572-9.1307-136.11 5.7143-155 4.5382-5.7743 14.304-6.5973 21.751-10.074 13.093-8.7548 28.358-13.475 41.332-16.626 12.958-3.1466 19-7.7796 19.774-13.301 2.3498-16.761-2.0754-23.604-13.571-25.714-18.655-3.4249-36.465 6.7439-52.583 18.438-33.947 10.28-66.428 39.788-74.917 72.991-14.615 57.166-20.362 125.68 28.929 199.11z" stroke="#000" stroke-width="1px" fill="#ff8080"/>
  </g>
 </g>
 <g id="layer2" display="none">
  <path id="path2836" fill="#f00" d="m260.05 97.58c-64.957-0.5248-89.975 20.169-137.14 38.571-43.291 16.89-98.006 1.8356-95-39.286 2.984-40.819 27.829-61.17 63.952-71.3 47.114-13.212 110-5.6113 148.55 14.872 27.518 14.623 26.935 45.052 22.143 53.571-2.0825-7.7637-11.049-21.2-21.429-26.429-23.714-11.945-27.691-13.974-64.643-12.857-16.061 0.48536-21.75 7.7572-30.703 14.968-4.599 3.7043-76.413 17.107-75.726 22.175 1.1685 8.6103 13.297-0.0578 21.445-1.1394 8.206-1.0894 48.125-13.531 57.127-14.575 15.685-1.8194 28.199 4.0113 43.214 2.5 48.892-4.9208 58.435 8.2994 68.214 18.929"/>
 </g>
 <g id="layer4" display="none">
  <path id="path2836-3" d="m232.56 80.923c-44.035-0.27291-90.101 18.674-122.08 28.244-29.348 8.7834-66.44 0.95458-64.402-20.43 2.0229-21.227 60.304-38.577 84.792-43.846 31.939-6.8709 62.24-4.3371 88.371 6.3147 18.655 7.6044 20.078 13.423 16.83 17.854-1.4118-4.0374-9.3092-1.0197-16.346-3.7387-16.076-6.212-18.772-7.2668-43.822-6.6862-10.888 0.25241-14.745 4.034-20.814 7.784-3.1177 1.9264-61.807 9.8057-61.341 12.442 0.79217 4.4776 19.02-0.93957 24.543-1.5021 5.563-0.56652 32.625-7.0364 38.727-7.5794 10.633-0.94613 2.7437 9.3626 12.924 8.5767 33.145-2.559 45.981-7.5085 52.611-1.981" fill-opacity=".56707" fill="#de8787"/>
 </g>
 <g id="layer3" display="none">
  <path id="path2836-3-6" d="m245.22 81.563c-51.27-0.29441-71.016 11.315-108.25 21.639-34.169 9.4755-87.36 8.3064-84.988-14.763 2.3552-22.9 46.328-40.063 74.84-45.746 37.186-7.4122 72.466-4.6788 102.89 6.8122 21.72 8.2035 21.259 25.274 17.477 30.054-1.6437-4.3555-8.7207-16.441-16.913-19.375-18.717-6.7014-22.766-6.0203-51.022-2.665-12.591 1.4951-17.167 4.3518-24.233 8.3972-9.0873-7.0176-79.413 16.874-78.871 19.717 0.92231 4.8304 29.596-7.309 36.027-7.9158 6.4769-0.61115 37.984-7.5908 45.09-8.1766 12.38-1.0207 22.257 2.2504 34.109 1.4025 38.59-2.7606 33.388 7.3847 41.107 13.348" fill-opacity=".72561" fill="#87a15f"/>
 </g>
</svg>
